{
  "todolist": [
    {
      "item": "leaj;torg",
      "done": false,
      "id": "rkEaSseOx"
    },
    {
      "item": "uyvl",
      "done": false,
      "id": "SyaVDoldg"
    },
    {
      "item": "uoglij",
      "done": false,
      "id": "By1SPsx_e"
    },
    {
      "item": "gudfjk",
      "done": false,
      "id": "rymLhsl_e"
    },
    {
      "item": "dfh;ifd",
      "done": false,
      "id": "HkL8njldx"
    },
    {
      "item": "dlfjkl",
      "done": false,
      "id": "BkjUnjgug"
    },
    {
      "item": "fkdshf",
      "done": false,
      "id": "rJaU3oedl"
    }
  ]
}